Stroke Prediction
…
bmi is read as a character yet it is a numerical
variable.

hypertension, heart_disease, and stroke - should be converted to
factor variables.

Age has a minimum of 0.08. Very unlikely especially for an
individual likely to suffer from stroke.

#Looking for duplicates
stroke_prediction %>% 
  count(id) %>% 
  arrange(desc(n))

## # A tibble: 5,110 × 2
##       id     n
##    <dbl> <int>
##  1    67     1
##  2    77     1
##  3    84     1
##  4    91     1
##  5    99     1
##  6   121     1
##  7   129     1
##  8   132     1
##  9   156     1
## 10   163     1
## # ℹ 5,100 more rows
…
collect_metrics(dt_tuning_results)

## # A tibble: 125 × 9
##    cost_complexity tree_depth min_n .metric .estimator  mean     n std_err
##              <dbl>      <int> <int> <chr>   <chr>      <dbl> <int>   <dbl>
##  1    0.0000000001          1     2 roc_auc binary     0.664    10  0.0150
##  2    0.0000000001          1    11 roc_auc binary     0.664    10  0.0150
##  3    0.0000000001          1    21 roc_auc binary     0.664    10  0.0150
##  4    0.0000000001          1    30 roc_auc binary     0.664    10  0.0150
##  5    0.0000000001          1    40 roc_auc binary     0.664    10  0.0150
##  6    0.0000000001          4     2 roc_auc binary     0.693    10  0.0157
##  7    0.0000000001          4    11 roc_auc binary     0.701    10  0.0143
##  8    0.0000000001          4    21 roc_auc binary     0.701    10  0.0143
##  9    0.0000000001          4    30 roc_auc binary     0.697    10  0.0139
## 10    0.0000000001          4    40 roc_auc binary     0.700    10  0.0162
## # ℹ 115 more rows
## # ℹ 1 more variable: .config <chr>
…
